{
  "project_info": {
    "project_number": "1009202310164",
    "project_id": "kathmandubutchery-dd67e",
    "storage_bucket": "kathmandubutchery-dd67e.appspot.com"
  },
  "client": [
    {
      "client_info": {
        "mobilesdk_app_id": "1:1009202310164:android:a8472a35bd09de89800b01",
        "android_client_info": {
          "package_name": "com.techkarkhana.kathmandubutchery"
        }
      },
      "oauth_client": [
        {
          "client_id": "1009202310164-iot6u9v7is3ikfhqtbf79e2kq2dq7m4l.apps.googleusercontent.com",
          "client_type": 3
        }
      ],
      "api_key": [
        {
          "current_key": "AIzaSyBC_Q24_FujZKU0brWMvD8to6qnm-2onDM"
        }
      ],
      "services": {
        "appinvite_service": {
          "other_platform_oauth_client": [
            {
              "client_id": "1009202310164-iot6u9v7is3ikfhqtbf79e2kq2dq7m4l.apps.googleusercontent.com",
              "client_type": 3
            }
          ]
        }
      }
    }
  ],
  "configuration_version": "1"
}